\begin{tikzpicture}[]

% new command: inverval
\newcommand{\itv}[4] % #1: start point; #2: end point; #3: operation name
{
  \coordinate (start #3) at #1;	% start point
  \coordinate (end #3) at #2;	% end point
  % \coordinate (mid) at ($0.5*#1 + 0.5*#2 + (0,0.8cm)$);

  \draw[ultra thick, #4, |-|] (start #3) -- (end #3) % draw the interval
    node[pos = .5, above = 2mm, font = \large, text = black] {}; % attach the operation name
  % \node (#3) [font = \huge] at (mid) {$#3$};	% attach the operation name
}

\begin{scope}[]
  \itv{(0,0)}{(2,0)}{r_1}{brown}
  \itv{(3.5,0)}{(5.2,0)}{r_2}{brown}
  \itv{(6.5,0)}{(8.2,0)}{r_3}{brown}

  \draw [decorate,decoration = {brace, mirror, raise = 10pt}, thick, blue] (end r_1) --  (start r_2) node[midway, below, yshift = -0.5cm] {\texttt{exp}$(\lambda)$};

  \draw [decorate, decoration = {brace, raise = 10pt}, thick, purple] (start r_2) --  (end r_2) node[midway, above, yshift = 0.5cm] {\texttt{exp}$(\mu)$};
\end{scope}

% title
\node [font = \large] at (3.0,1.5) {Statistical model (\emph{for each client}):};
\end{tikzpicture}