\begin{tikzpicture}[]
  % client
  \node [] (client) at (0,0) {\includegraphics[scale = 1.5]{logo_client.png}};
% blue database
  \node [above right = 2.0cm and 12.0cm of client] (db_blue) at (0,0) {\includegraphics[scale = 1.5]{logo_database.png}};
% orange database
  \node [below right = 2.0cm and 12.0cm of client] (db_orange) at (0,0) {\includegraphics[scale = 1.5]{logo_database_orange.png}};
% post a blog to the blue database
  \draw [->, line width = 5pt, blue] (client) to node [sloped, font = \huge, above] {(1) Post a blog.} (db_blue);
% refresh to the orange database
  \draw [->, line width = 5pt, orange] (client) to node [sloped, font = \huge, above] {(2) Refresh.} (db_orange);
% the orange database return old page
  \draw [->, line width = 5pt, orange] ($(db_orange.west) + (0,-1.5)$) to node [sloped, font = \huge, above] {(3) Return the old page.} (client.south east);
% background propagation
  \draw [->, line width = 5pt, loosely dashed, teal] (db_blue.east) to [out = -45, in = 45] node [align = center, font = \huge] {background \\ propagation \\ \textcolor{red}{(DELAYED!)}} (db_orange.east);
% surprise of client
  \node [below right = 1.5cm and 0.0cm of client, label = {[label distance = 0.5cm, font = \huge] -90 : Where is my blog?}] (confuse) at (0,0) {\includegraphics[scale = 0.3]{confuse_cartoon.jpg}};
\end{tikzpicture}